<?xml version="1.0" encoding="UTF-8"?>
<svg width="1000px" height="1000px" viewBox="0 0 1000 1000" version="1.1" xmlns="http://www.w3.org/2000/svg" xmlns:xlink="http://www.w3.org/1999/xlink">
    <!-- Generator: Sketch 51.2 (57519) - http://www.bohemiancoding.com/sketch -->
    <title>Shape</title>
    <desc>Created with Sketch.</desc>
    <defs></defs>
    <g id="Page-1" stroke="none" stroke-width="1" fill="none" fill-rule="evenodd">
        <g id="login-fail" fill="#FFFFFF" fill-rule="nonzero">
            <path d="M500,0 C224.126818,0 0,224.126818 0,500 C0,775.873182 224.126818,1000 500,1000 C775.873182,1000 1000,775.873182 1000,500 C1000,224.126818 775.873182,0 500,0 Z M500,45.4545455 C751.307727,45.4545455 954.545455,248.692273 954.545455,500 C954.545455,751.307727 751.307727,954.545455 500,954.545455 C248.692273,954.545455 45.4545455,751.307727 45.4545455,500 C45.4545455,248.692273 248.692273,45.4545455 500,45.4545455 Z M317.959864,295.232591 C308.711612,295.235023 300.386934,300.840675 296.906892,309.409191 C293.426849,317.977707 295.4854,327.800435 302.112932,334.250705 L467.862227,500 L302.112932,665.749295 C296.175641,671.449672 293.78394,679.914454 295.860232,687.879047 C297.936523,695.843639 304.156361,702.063477 312.120953,704.139768 C320.085546,706.21606 328.550328,703.824359 334.250705,697.887068 L500,532.137773 L665.749295,697.887068 C671.449672,703.824359 679.914454,706.21606 687.879047,704.139768 C695.843639,702.063477 702.063477,695.843639 704.139768,687.879047 C706.21606,679.914454 703.824359,671.449672 697.887068,665.749295 L532.137773,500 L697.887068,334.250705 C704.608898,327.716811 706.63,317.726478 702.976496,309.093594 C699.322992,300.460711 690.744376,294.956261 681.374295,295.232591 C675.469779,295.408529 669.865693,297.876243 665.749295,302.112932 L500,467.862227 L334.250705,302.112932 C329.971818,297.714454 324.09627,295.232951 317.959864,295.232591 Z" id="Shape"></path>
        </g>
    </g>
</svg>