<?xml version="1.0" encoding="UTF-8"?>
<svg width="13px" height="8px" viewBox="0 0 13 8" version="1.1" xmlns="http://www.w3.org/2000/svg" xmlns:xlink="http://www.w3.org/1999/xlink">
    <!-- Generator: Sketch 51.3 (57544) - http://www.bohemiancoding.com/sketch -->
    <title>Path 2</title>
    <desc>Created with Sketch.</desc>
    <defs></defs>
    <g id="Page-1" stroke="none" stroke-width="1" fill="none" fill-rule="evenodd" stroke-linecap="round" stroke-linejoin="round">
        <g id="3" transform="translate(-1400.000000, -33.000000)" stroke="#25265E" stroke-width="2">
            <g id="tOP-NA">
                <g id="Group-18" transform="translate(1220.000000, 17.000000)">
                    <polyline id="Path-2" transform="translate(186.500000, 20.000000) rotate(-90.000000) translate(-186.500000, -20.000000) " points="189 15 184 20 189 25"></polyline>
                </g>
            </g>
        </g>
    </g>
</svg>