<?xml version="1.0" encoding="UTF-8"?>
<svg width="8px" height="10px" viewBox="0 0 8 10" version="1.1" xmlns="http://www.w3.org/2000/svg" xmlns:xlink="http://www.w3.org/1999/xlink">
    <!-- Generator: Sketch 51.3 (57544) - http://www.bohemiancoding.com/sketch -->
    <title>Combined Shape</title>
    <desc>Created with Sketch.</desc>
    <defs></defs>
    <g id="Page-1" stroke="none" stroke-width="1" fill="none" fill-rule="evenodd">
        <g id="3" transform="translate(-896.000000, -366.000000)" fill="#4BB543" fill-rule="nonzero">
            <g id="Last-week" transform="translate(856.000000, 209.000000)">
                <g id="Group-26" transform="translate(27.000000, 28.000000)">
                    <g id="Group-22" transform="translate(1.000000, 121.000000)">
                        <g id="Group-20" transform="translate(12.000000, 7.000000)">
                            <g id="Group-19" transform="translate(0.000000, 1.000000)">
                                <path d="M4.49870256,6.93027787 L6.47859817,4.73039386 C6.7371755,4.44308572 7.17970312,4.41979479 7.46701127,4.67837212 C7.75431941,4.93694945 7.77761034,5.37947707 7.51903301,5.66678522 L4.3695687,9.16619 C4.09154636,9.47510371 3.6071562,9.47510371 3.32913386,9.16619 L0.179669558,5.66678522 C-0.0789077746,5.37947707 -0.0556168474,4.93694945 0.231691299,4.67837212 C0.518999446,4.41979479 0.961527062,4.44308572 1.22010439,4.73039386 L2.89870256,6.59550294 L2.89870256,0.8 C2.89870256,0.3581722 3.25687476,0 3.69870256,0 C4.14053036,0 4.49870256,0.3581722 4.49870256,0.8 L4.49870256,6.93027787 Z" id="Combined-Shape" transform="translate(3.849351, 4.698938) scale(1, -1) translate(-3.849351, -4.698938) "></path>
                            </g>
                        </g>
                    </g>
                </g>
            </g>
        </g>
    </g>
</svg>