<?xml version="1.0" encoding="UTF-8"?>
<svg width="21px" height="5px" viewBox="0 0 21 5" version="1.1" xmlns="http://www.w3.org/2000/svg" xmlns:xlink="http://www.w3.org/1999/xlink">
    <!-- Generator: Sketch 51.3 (57544) - http://www.bohemiancoding.com/sketch -->
    <title>options</title>
    <desc>Created with Sketch.</desc>
    <defs></defs>
    <g id="Page-1" stroke="none" stroke-width="1" fill="none" fill-rule="evenodd">
        <g id="4" transform="translate(-1303.000000, -324.000000)" fill="#4E566D">
            <g id="Group-34" transform="translate(336.000000, 163.000000)">
                <g id="Group-32">
                    <g id="Refund-Copy">
                        <g id="Group-23" transform="translate(0.000000, 134.000000)">
                            <path d="M985.688091,32 C984.411864,32 983.376182,30.881 983.376182,29.5 C983.376182,28.119 984.411864,27 985.688091,27 C986.965273,27 988,28.119 988,29.5 C988,30.881 986.965273,32 985.688091,32 L985.688091,32 Z M977.5,32 C976.231409,32 975.203364,30.881 975.203364,29.5 C975.203364,28.119 976.231409,27 977.5,27 C978.768591,27 979.796636,28.119 979.796636,29.5 C979.796636,30.881 978.768591,32 977.5,32 L977.5,32 Z M969.311909,32 C968.034727,32 967,30.881 967,29.5 C967,28.119 968.034727,27 969.311909,27 C970.588136,27 971.623818,28.119 971.623818,29.5 C971.623818,30.881 970.588136,32 969.311909,32 L969.311909,32 Z" id="options"></path>
                        </g>
                    </g>
                </g>
            </g>
        </g>
    </g>
</svg>