<?xml version="1.0" encoding="UTF-8"?>
<svg width="14px" height="14px" viewBox="0 0 14 14" version="1.1" xmlns="http://www.w3.org/2000/svg" xmlns:xlink="http://www.w3.org/1999/xlink">
    <!-- Generator: Sketch 51.3 (57544) - http://www.bohemiancoding.com/sketch -->
    <title>Icons / Navigation 24px / Grey / Add</title>
    <desc>Created with Sketch.</desc>
    <defs></defs>
    <g id="Page-1" stroke="none" stroke-width="1" fill="none" fill-rule="evenodd">
        <g id="11--Recent-accounts" transform="translate(-981.000000, -381.000000)">
            <g id="Group-24" transform="translate(649.000000, 178.000000)">
                <g id="Group-43" transform="translate(39.000000, 190.000000)">
                    <g id="Group-42">
                        <g id="Group-39" transform="translate(280.000000, 0.000000)">
                            <g id="Icons-/-Navigation-24px-/-Grey-/-Add" transform="translate(8.000000, 8.000000)">
                                <g id="Add">
                                    <rect id="Bounds" x="0" y="0" width="24" height="24"></rect>
                                    <polygon id="Shape" fill="#4E566D" opacity="0.539999962" points="11 5 11 11 5 11 5 13 11 13 11 19 13 19 13 13 19 13 19 11 13 11 13 5"></polygon>
                                </g>
                            </g>
                        </g>
                    </g>
                </g>
            </g>
        </g>
    </g>
</svg>